Place,Name,Sex,BirthDate,BirthYear,Age,Country,Equipment,Division,BodyweightKg,WeightClassKg,Squat1Kg,Squat2Kg,Squat3Kg,Squat4Kg,Best3SquatKg,Bench1Kg,Bench2Kg,Bench3Kg,Bench4Kg,Best3BenchKg,Deadlift1Kg,Deadlift2Kg,Deadlift3Kg,Deadlift4Kg,Best3DeadliftKg,TotalKg,Event
1,Patrycja Oniszk,F,,,21,Poland,Wraps,J20-23,52.4,56,90,100,105,110,105,40,45,-50.5,,45,105.5,112.5,117.5,,117.5,267.5,SBD
1,Kasandra Patelczyk,F,,,22,Poland,Wraps,J20-23,58.9,60,175,-185,185,,185,80,82.5,85,,85,175,185,195,,195,465,SBD
1,Kinga Głuchowska,F,,,20,Poland,Wraps,J20-23,67,67.5,115,-120,-120,,115,35,40,42.5,,42.5,-130,135,-142.5,,135,292.5,SBD
1,Karolina Piotrowska,F,,,20,Poland,Wraps,J20-23,74.5,75,135,-145,150,,150,50,55,-60,,55,165,172.5,177.5,,177.5,382.5,SBD
1,Daria Postrożna,F,,,22,Poland,Wraps,J20-23,79.7,82.5,135,142.5,-150,,142.5,65,67.5,-70,,67.5,145,152.5,160,,160,370,SBD
1,Anna Kalinowska,F,,,40,Poland,Wraps,M40-49,72.8,75,140,145,-150,,145,65,70,-72.5,,70,130,140,145,,145,360,SBD
1,Małgorzata Bartosiak,F,,,39,Poland,Wraps,MPF,55.4,56,120,-130,,,120,50,55,-60,,55,142.5,150,-157.5,,150,325,SBD
1,Klaudia Łącz,F,,,27,Poland,Wraps,MPF,73,75,170,180,190,,190,82.5,87.5,-90,,87.5,165,172.5,-192.5,,172.5,450,SBD
1,Eliza Gerlach,F,,,24,Poland,Raw,Open,51.8,52,140,-150,-150,,140,-80,80,-85,,80,150,160,-167.5,,160,380,SBD
1,Paula Wasilewska,F,,,24,Poland,Wraps,Open,54.3,56,130,-135,-135,,130,70,75,-80,,75,135,145,-155,-155,145,350,SBD
2,Małgorzata Bartosiak,F,,,39,Poland,Wraps,Open,55.4,56,120,-130,,,120,50,55,-60,,55,142.5,150,-157.5,,150,325,SBD
3,Honorata Domaradzka,F,,,,Poland,Wraps,Open,55.1,56,-110,-115,115,,115,65,-67.5,67.5,,67.5,115,120,-125,,120,302.5,SBD
4,Monika Sykała,F,,,36,Poland,Wraps,Open,55,56,-100,107.5,-115,,107.5,40,42.5,-45,,42.5,115,122.5,-130,,122.5,272.5,SBD
5,Natalia Ceglewska,F,,,28,Poland,Wraps,Open,53.7,56,90,95,-100,,95,47.5,50,-52.5,,50,-120,125,-135,,125,270,SBD
1,Anna Przybysz,F,,,33,Poland,Wraps,Open,59.7,60,130,140,145,,145,62.5,65,-67.5,,65,140,147.5,152.5,,152.5,362.5,SBD
2,Magdalena Gomułkiewicz,F,,,25,Poland,Wraps,Open,56.9,60,-130,130,135,,135,65,67.5,-70,,67.5,125,130,-132.5,,130,332.5,SBD
3,Natalia Sobczak,F,,,26,Poland,Wraps,Open,60,60,-125,125,-135,,125,60,62.5,-65,,62.5,130,-140,140,,140,327.5,SBD
1,Krisztina Majoros,F,,,29,Hungary,Wraps,Open,65.1,67.5,185,-192.5,192.5,,192.5,87.5,90,92.5,,92.5,175,-182.5,-182.5,,175,460,SBD
2,Julia Baranowska,F,,,27,Poland,Wraps,Open,65.6,67.5,150,-160,-160,,150,60,62.5,65,,65,145,155,-170,,155,370,SBD
3,Anna Bielak,F,,,34,Poland,Wraps,Open,66.3,67.5,120,-125,-127.5,,120,67.5,70,72.5,,72.5,130,140,150,,150,342.5,SBD
4,Julia Miszczuk,F,,,24,Poland,Wraps,Open,65.7,67.5,110,117.5,122.5,,122.5,45,50,55,,55,110,120,130,,130,307.5,SBD
5,Marta Radiszewska,F,,,25,Poland,Wraps,Open,64.1,67.5,85,-92.5,-92.5,,85,50,52.5,-55,,52.5,107.5,115,120,,120,257.5,SBD
6,Karolina Bonar,F,,,26,Poland,Wraps,Open,63,67.5,87.5,95,-102.5,,95,45,47.5,50,,50,90,97.5,102.5,,102.5,247.5,SBD
1,Anita Rygał,F,,,32,Poland,Wraps,Open,73.2,75,165,175,182.5,,182.5,110,117.5,-122.5,,117.5,185,195,205,,205,505,SBD
2,Marta Zawadzka,F,,,26,Poland,Wraps,Open,71.3,75,175,185,190,,190,97.5,102.5,-107.5,,102.5,160,170,175,,175,467.5,SBD
3,Klaudia Łącz,F,,,27,Poland,Wraps,Open,73,75,170,180,190,,190,82.5,87.5,-90,,87.5,165,172.5,-192.5,,172.5,450,SBD
4,Agata Kwiatkowska,F,,,26,Poland,Wraps,Open,67.9,75,145,152.5,-160,,152.5,75,77.5,80,,80,160,170,-180,,170,402.5,SBD
5,Adrianna Pluta,F,,,29,Poland,Wraps,Open,71,75,-110,110,-115,,110,45,50,-52.5,,50,110,115,120,,120,280,SBD
1,Marzena Wierzbicka,F,,,33,Poland,Wraps,Open,79.9,82.5,215,222.5,230,,230,110,115,-117.5,,115,230,240,-255,,240,585,SBD
2,Nina Stawska,F,,,25,Poland,Wraps,Open,77,82.5,122.5,130,140,,140,70,75,-77.5,,75,140,152.5,-165,,152.5,367.5,SBD
3,Agata Andruszkiewicz,F,,,28,Poland,Wraps,Open,81.6,82.5,122.5,130,135,,135,45,47.5,-50,,47.5,120,127.5,132.5,,132.5,315,SBD
4,Miroslava Hrašková,F,,,34,Slovakia,Wraps,Open,77.6,82.5,90,102.5,-107.5,,102.5,45,50,-55,,50,120,125,127.5,,127.5,280,SBD
1,Sabrina Brandt,F,,,39,Germany,Wraps,Open,119.5,90+,125,132.5,140,,140,80,87.5,-92.5,,87.5,125,140,,,140,367.5,SBD
1,Nadia Wieszczyk,F,,,14,Poland,Wraps,T13-15,60.2,67.5,-70,70,-80,,70,30,35,-40,,35,85,95,-100,,95,200,SBD
2,Natasza Krawczyk,F,,,14,Poland,Wraps,T13-15,64,67.5,-60,60,72.5,,72.5,25,30,32.5,,32.5,75,87.5,-97.5,,87.5,192.5,SBD
1,Yana Ponomarova,F,,,17,Poland,Wraps,T16-17,45.6,48,50,-60,-70,,50,27.5,30,35,,35,50,60,72.5,,72.5,157.5,SBD
1,Joanna Dobrowolska,F,,,17,Poland,Wraps,T16-17,62.9,67.5,-100,100,107.5,,107.5,47.5,50,52.5,,52.5,100,-115,-115,,100,260,SBD
1,Marta Sieradzka,F,,,17,Poland,Wraps,T16-17,68.2,75,-50,70,-80,,70,-30,32.5,35,,35,-90,95,100,,100,205,SBD
1,Aleksandra Paziewska,F,,,18,Poland,Wraps,T18-19,58,60,-120,125,-130,,125,55,57.5,60,,60,125,130,135,,135,320,SBD
1,Nadia Wieszczyk,F,,,14,Poland,Wraps,T13-15,60.2,67.5,-70,70,-80,,70,,,,,,,,,,,70,S
1,Roksana Blok,F,,,21,Poland,Raw,J20-23,65.7,67.5,,,,,,55,-57.5,57.5,,57.5,,,,,,57.5,B
1,Daria Lewandowska,F,,,23,Poland,Raw,J20-23,68.7,75,,,,,,95,100,102.5,,102.5,,,,,,102.5,B
1,Erika Molnár,F,,,45,Hungary,Raw,M40-49,62.3,67.5,,,,,,-55,55,-57.5,,55,,,,,,55,B
1,Evelyn Eisensehr,F,,,49,Hungary,Raw,M40-49,79.8,82.5,,,,,,117.5,122.5,-127.5,,122.5,,,,,,122.5,B
2,Beáta Szalay,F,,,43,Hungary,Raw,M40-49,79.3,82.5,,,,,,70,80,-82.5,,80,,,,,,80,B
1,Livia Tal Nemethne,F,,,51,Hungary,Raw,M50-59,63.1,67.5,,,,,,40,42.5,45,,45,,,,,,45,B
1,Maria Hegedus,F,,,57,Hungary,Raw,M50-59,68.4,75,,,,,,40,42.5,45,,45,,,,,,45,B
1,Zsuzsanna Horváth,F,,,60,Hungary,Raw,M60-69,43.5,44,,,,,,40,42.5,-45,,42.5,,,,,,42.5,B
1,Roksana Blok,F,,,21,Poland,Raw,MPF,65.7,67.5,,,,,,55,-57.5,57.5,,57.5,,,,,,57.5,B
1,Aleksandra Szymczykowska,F,,,24,Poland,Raw,Open,59.3,60,,,,,,110,115,,,115,,,,,,115,B
2,Marina Schermer,F,,,37,Germany,Raw,Open,58.3,60,,,,,,92.5,100,-105,,100,,,,,,100,B
1,Lucie Habart,F,,,30,Germany,Raw,Open,74.8,75,,,,,,40,50,-55,,50,,,,,,50,B
1,Katarzyna Kamieńska,F,,,38,Poland,Raw,Open,80.5,82.5,,,,,,100,-102.5,102.5,,102.5,,,,,,102.5,B
1,Malgorzata Kopiec,F,,,37,Poland,Raw,Open,85,90,,,,,,-160,165,170,,170,,,,,,170,B
2,Ágnes Nagy,F,,,37,Hungary,Raw,Open,88.1,90,,,,,,80,85,90,,90,,,,,,90,B
1,Laura Csanicz,F,,,24,Hungary,Raw,Open,101.8,90+,,,,,,80,90,100,,100,,,,,,100,B
1,Hanna Marosi,F,,,15,Hungary,Raw,T13-15,63.8,67.5,,,,,,-45,47.5,50,,50,,,,,,50,B
2,Nadia Wieszczyk,F,,,14,Poland,Raw,T13-15,60.2,67.5,,,,,,30,35,-40,,35,,,,,,35,B
1,Livia Tal Nemethne,F,,,51,Hungary,Multi-ply,M50-59,63.1,67.5,,,,,,47.5,52.5,55,,55,,,,,,55,B
1,Zhanna Shahnazayan,F,,,38,Armenia,Multi-ply,MPF,82.3,82.5,,,,,,50,-60,-60,,50,,,,,,50,B
1,Zhanna Shahnazayan,F,,,38,Armenia,Multi-ply,Open,82.3,82.5,,,,,,50,-60,-60,,50,,,,,,50,B
1,Erika Molnár,F,,,45,Hungary,Unlimited,M40-49,62.3,67.5,,,,,,60,67.5,72.5,,72.5,,,,,,72.5,B
1,Hanna Marosi,F,,,15,Hungary,Unlimited,T13-15,63.8,67.5,,,,,,55,60,-67.5,,60,,,,,,60,B
1,Kamila Nyderek,F,,,18,Poland,Unlimited,T18-19,64.1,67.5,,,,,,65,-72.5,80,,80,,,,,,80,B
1,Zuzanna Buchowiecka,F,,,20,Poland,Raw,J20-23,49,52,,,,,,,,,,,122.5,133,-140,,133,133,D
2,Magdalena Szpila,F,,,20,Poland,Raw,J20-23,50.8,52,,,,,,,,,,,120,127.5,,,127.5,127.5,D
3,Kamila Gawkowska,F,,,22,Poland,Raw,J20-23,46.4,48,,,,,,,,,,,80,85,90,,90,90,D
1,Radoslava Tóth,F,,,34,Slovakia,Raw,Open,50.1,52,,,,,,,,,,,105,110,115,,115,115,D
1,Marina Schermer,F,,,37,Germany,Raw,Open,58.3,60,,,,,,,,,,,130,140,150,,150,150,D
1,Paulina Pracownik,F,,,32,Poland,Raw,Open,63.3,67.5,,,,,,,,,,,120,127.5,137.5,,137.5,137.5,D
2,Sylwia Markut,F,,,24,Poland,Raw,Open,62.5,67.5,,,,,,,,,,,135,-142.5,-142.5,,135,135,D
1,Monika Wozniak,F,,,33,Poland,Raw,Open,72,75,,,,,,,,,,,110,115,120,,120,120,D
1,Miroslava Hrašková,F,,,34,Slovakia,Raw,Open,75.3,82.5,,,,,,,,,,,120,125,-130,,125,125,D
1,Laura Csanicz,F,,,24,Hungary,Raw,Open,101.8,90+,,,,,,,,,,,170,180,-200,,180,180,D
1,Nadia Wieszczyk,F,,,14,Poland,Raw,T13-15,60.2,67.5,,,,,,,,,,,85,95,-100,,95,95,D
1,Zhanna Shahnazayan,F,,,38,Armenia,Multi-ply,MPF,82.3,82.5,,,,,,,,,,,130,140,142.5,,142.5,142.5,D
1,Zhanna Shahnazayan,F,,,38,Armenia,Multi-ply,Open,82.3,82.5,,,,,,,,,,,130,140,142.5,,142.5,142.5,D
1,Paweł Bożek,M,,,20,Poland,Wraps,J20-23,64.5,67.5,122.5,130,135,,135,87.5,92.5,95,,95,157.5,162.5,170,,170,400,SBD
1,Mateusz Stermolewski,M,,,21,Poland,Wraps,J20-23,74.8,75,190,205,-212.5,,205,105,110,-112.5,,110,200,215,222.5,,222.5,537.5,SBD
2,Wiktor Borysiewicz,M,,,21,Poland,Wraps,J20-23,73,75,170,-180,-180,,170,105,110,-112.5,,110,202.5,210,215,,215,495,SBD
DQ,Diego Giuliani,M,,,22,Italy,Wraps,J20-23,68.4,75,-170,-170,-180,,,,,,,,,,,,,,SBD
1,Oliver Kurek,M,,,23,Slovakia,Wraps,J20-23,82.5,82.5,280,-290,-290,,280,170,175,-180,,175,310,-320,,,310,765,SBD
2,Konrad Mrozowski,M,,,23,Poland,Wraps,J20-23,81.2,82.5,215,222.5,-230,,222.5,127.5,132.5,-137.5,,132.5,230,237.5,-245,,237.5,592.5,SBD
3,Mateusz Scharmach,M,,,20,Poland,Wraps,J20-23,81.5,82.5,170,180,-190,,180,115,120,-125,,120,205,-217.5,220,,220,520,SBD
4,Paweł Płaskoń,M,,,22,Poland,Wraps,J20-23,79.6,82.5,165,-175,-175,,165,107.5,112.5,-117.5,,112.5,180,190,-200,,190,467.5,SBD
1,Krystian Piech,M,,,23,Poland,Wraps,J20-23,87.3,90,250,-260,-260,,250,165,-172.5,-172.5,,165,305,-315,-315,,305,720,SBD
2,Kamil Gigon,M,,,23,Poland,Wraps,J20-23,88.2,90,245,260,-270,,260,145,155,160,,160,245,260,270,,270,690,SBD
3,Kacper Grabowski,M,,,23,Poland,Wraps,J20-23,86.6,90,215,227.5,240,,240,155,162.5,-170,,162.5,220,232.5,237.5,,237.5,640,SBD
4,Krystian Kwiatkowski,M,,,20,Poland,Wraps,J20-23,89.8,90,240,260,-275,,260,135,142.5,145,,145,200,220,232.5,,232.5,637.5,SBD
5,Jan Forzpańczyk,M,,,21,Poland,Wraps,J20-23,88.5,90,220,227.5,-235,,227.5,130,135,-140,,135,200,210,215,,215,577.5,SBD
6,Maciej Siwinski,M,,,22,Poland,Wraps,J20-23,88.2,90,-205,205,-212.5,,205,132.5,137.5,-140,,137.5,225,232.5,-240,,232.5,575,SBD
7,Piotr Szewczyk,M,,,21,Poland,Wraps,J20-23,86.6,90,195,205,-215,,205,132.5,140,-145,,140,210,222.5,-230,,222.5,567.5,SBD
8,Filip Nowak,M,,,22,Poland,Wraps,J20-23,88,90,170,-182.5,182.5,,182.5,-100,100,-105,,100,192.5,200,207.5,,207.5,490,SBD
9,Jakub Adamczyk,M,,,20,Poland,Wraps,J20-23,88.5,90,162.5,-170,172.5,,172.5,110,-115,-115,,110,185,195,205,,205,487.5,SBD
DQ,Paweł Just,M,,,23,Poland,Wraps,J20-23,86.9,90,-275,-275,-275,,,,,,,,,,,,,,SBD
1,Maciej Ziajor,M,,,20,Poland,Wraps,J20-23,98.8,100,280,300,-307.5,,300,160,167.5,175,,175,270,290,315,,315,790,SBD
2,Adam Knespl,M,,,20,Czechia,Wraps,J20-23,97.8,100,240,260,267.5,,267.5,150,157.5,162.5,,162.5,280,295,-305,,295,725,SBD
3,Mateusz Sikora,M,,,20,Poland,Wraps,J20-23,98.6,100,230,240,-250,,240,140,150,-155,,150,-280,280,300,,300,690,SBD
1,Bartosz Szczepankiewicz,M,,,23,Poland,Wraps,J20-23,103.4,110,285,311,-321,,311,180,191,-192.5,,191,280,-305,-305,,280,782,SBD
2,Joel Eriksson,M,,,23,Sweden,Wraps,J20-23,101.9,110,270,290,-310,,290,180,190,195,,195,270,-300,,,270,755,SBD
3,Adrian Radoliński,M,,,23,Poland,Wraps,J20-23,108.5,110,265,275,290,,290,165,172.5,-177.5,,172.5,275,-285,-285,,275,737.5,SBD
4,Kamil Grabka,M,,,23,Poland,Wraps,J20-23,109.1,110,260,275,285,,285,150,160,167.5,,167.5,270,-280,280,,280,732.5,SBD
5,Gergő Hoffmann,M,,,21,Hungary,Wraps,J20-23,110,110,-240,240,-250,,240,160,165,-167.5,,165,280,-292.5,-292.5,,280,685,SBD
6,Kacper Chochol,M,,,21,Poland,Wraps,J20-23,106.2,110,230,250,260,,260,-130,132.5,140,,140,225,237.5,250,,250,650,SBD
7,Ignacy Lamperski,M,,,20,Poland,Wraps,J20-23,105.6,110,220,235,250,,250,110,117.5,122.5,,122.5,220,-240,250,,250,622.5,SBD
8,William Karlsson Stolt,M,,,20,Sweden,Wraps,J20-23,110,110,-240,240,-260,,240,140,150,160,,160,75,,,,75,475,SBD
DQ,Grzegorz Bala,M,,,22,Poland,Wraps,J20-23,109.4,110,255,-270,-270,,255,155,-160,,,155,-245,-260,-260,,,,SBD
DQ,Mariusz Bubula,M,,,22,Poland,Wraps,J20-23,110,110,-240,-255,255,,255,,,,,,,,,,,,SBD
1,Jakub Wasniewski,M,,,20,Poland,Wraps,J20-23,125,125,240,-262.5,-262.5,,240,-135,-135,135,,135,240,-252.5,,,240,615,SBD
1,Makar Tamrazyan,M,,,41,Armenia,Wraps,M40-49,67.5,67.5,150,162.5,,,162.5,100,-110,-110,,100,200,-222.5,-222.5,,200,462.5,SBD
1,Ara Khachatryan,M,,,40,Armenia,Wraps,M40-49,82.5,82.5,230,240,245,,245,125,130,-135,,130,260,270,280,,280,655,SBD
2,Robert Kucza,M,,,45,Poland,Wraps,M40-49,79.9,82.5,-110,110,-130,,110,100,110,-120,,110,160,170,180,,180,400,SBD
3,Marek Witkowski,M,,,45,Poland,Wraps,M40-49,77,82.5,120,130,-135,,130,72.5,-77.5,-77.5,,72.5,150,155,157.5,,157.5,360,SBD
1,Daniel Cieplak,M,,,49,Poland,Wraps,M40-49,89.4,90,-215,215,225,,225,150,160,165,,165,220,232.5,240,,240,630,SBD
2,Mariusz Gładysz,M,,,41,Poland,Wraps,M40-49,83,90,200,210,-215,,210,150,155,-160,,155,230,240,-245,,240,605,SBD
1,Gevorg Aleksanyan,M,,,41,Armenia,Wraps,M40-49,100,100,-230,230,240,,240,140,145,150,,150,240,250,255,,255,645,SBD
2,Jakub Mika,M,,,42,Poland,Wraps,M40-49,98.7,100,220,-230,230,,230,132.5,-137.5,137.5,,137.5,210,220,-232.5,,220,587.5,SBD
1,Pawel Szewczyk,M,,,41,Poland,Wraps,M40-49,109.4,110,225,-240,240,,240,115,120,125,,125,240,260,270,,270,635,SBD
1,Jakub Koryzna,M,,,46,Poland,Wraps,M40-49,110.7,125,190,200,-210,,200,185,-195,195,,195,230,240,250,,250,645,SBD
2,Artavazd Arakelyan,M,,,47,Armenia,Wraps,M40-49,121.9,125,-200,200,-220,,200,130,145,150,,150,220,230,-240,,230,580,SBD
1,Sławomir Jankowski,M,,,42,Poland,Wraps,M40-49,158.9,140+,250,270,280,,280,170,180,-190,,180,280,300,-310,,300,760,SBD
1,Michael Schmidt,M,,,52,Germany,Wraps,M50-59,80.5,82.5,210,-230,230,,230,140,150,155,,155,230,-240,245,,245,630,SBD
1,Krzysztof Tur,M,,,55,Poland,Wraps,M50-59,90,90,220.5,-230,,,220.5,100,-112.5,112.5,,112.5,220,240,-250.5,,240,573,SBD
1,Mariusz Rufkiewicz,M,,,55,Poland,Wraps,M50-59,100.7,110,200,220,230.5,,230.5,135,145,-155.5,,145,225,240,255,,255,630.5,SBD
1,Mieczysłąw Maczka,M,,,68,Germany,Wraps,M60-69,82.1,82.5,120,135,-142.5,,135,90,97.5,100,,100,130,145,150,,150,385,SBD
1,Peter Herák,M,,,61,Slovakia,Wraps,M60-69,89.1,90,200,215,225,,225,110,115,120,,120,-210,220,240,,240,585,SBD
1,Mieczysłąw Maczka,M,,,68,Germany,Wraps,MPF,82.1,82.5,120,135,-142.5,,135,90,97.5,100,,100,130,145,150,,150,385,SBD
1,Marcin Cichy,M,,,26,Poland,Wraps,MPF,88.8,90,-265,-265,265,,265,170,175,,,175,265,275,-290,,275,715,SBD
2,Kacper Grabowski,M,,,23,Poland,Wraps,MPF,86.6,90,215,227.5,240,,240,155,162.5,-170,,162.5,220,232.5,237.5,,237.5,640,SBD
3,Mariusz Stachowiak,M,,,24,Poland,Wraps,MPF,88.6,90,-215,-222.5,222.5,,222.5,155,162.5,-167.5,,162.5,220,240,-257.5,,240,625,SBD
1,Łukasz Kojder,M,,,29,Poland,Wraps,MPF,100,100,250,260,265,,265,185,195,200,,200,285,305,315,,315,780,SBD
2,Patryk Kunwalt,M,,,27,Poland,Wraps,MPF,99.7,100,240,-260,-265,,240,150,155,157.5,,157.5,260,275,280,,280,677.5,SBD
1,Marcin Statkiewicz,M,,,25,Poland,Wraps,MPF,100.8,110,295,310,-320,,310,180,185,-190,,185,75,,,,75,570,SBD
1,Karol Prawdzik,M,,,30,Poland,Wraps,MPF,120,125,230,240,-250,,240,200,210,212.5,,212.5,260,270,280,,280,732.5,SBD
2,Kamil Kulpa,M,,,34,Poland,Wraps,MPF,124.7,125,235,-245,-245,,235,-145,145,-150,,145,-215,-215,215,,215,595,SBD
3,Artavazd Arakelyan,M,,,47,Armenia,Wraps,MPF,121.9,125,-200,200,-220,,200,130,145,150,,150,220,230,-240,,230,580,SBD
DQ,Adam Gembarski,M,,,30,Poland,Wraps,MPF,128.4,140,260,-280,-280,,260,170,177.5,-185,,177.5,-300,-300,-300,,,,SBD
1,Edgar Badalyan,M,,,35,Armenia,Wraps,Open,64.3,67.5,70,80,-90,,80,80,90,-95,,90,140,145,-150,,145,315,SBD
1,Oleksandr Trondiuk,M,,,26,Ukraine,Wraps,Open,74,75,240,-260,,,240,125,130,132.5,,132.5,-270,270,285,-290.5,285,657.5,SBD
2,Dominik Szczebak,M,,,25,Poland,Wraps,Open,68,75,185,195,-200,,195,107.5,112.5,-115,,112.5,190,205,-220,,205,512.5,SBD
3,Michal Ziemnicki,M,,,26,Poland,Wraps,Open,73.2,75,165,175,-185,,175,95,-100,-100,,95,180,190,200,,200,470,SBD
1,Bartłomiej Wierciński,M,,,26,Poland,Wraps,Open,82.1,82.5,225,235,245,,245,125,132.5,-135,,132.5,240,255,272.5,,272.5,650,SBD
2,Artur Grudkowski,M,,,32,Poland,Wraps,Open,80.2,82.5,185,-200,200,,200,117.5,122.5,,,122.5,210,230,-250,,230,552.5,SBD
3,Krzysztof Malek,M,,,25,Poland,Wraps,Open,80.7,82.5,190,200,210,,210,105,112.5,117.5,,117.5,-205,207.5,222.5,,222.5,550,SBD
4,Wojtek Zawadzki,M,,,24,Poland,Wraps,Open,81.3,82.5,185,192.5,,,192.5,105,-110,-110,,105,205,215,225,,225,522.5,SBD
5,Nicolangelo Lelpo,M,,,30,Italy,Wraps,Open,81.1,82.5,175,187.5,-200,,187.5,112.5,-117.5,-125,,112.5,210,220,-230,,220,520,SBD
6,Mateusz Siewierski,M,,,28,Poland,Wraps,Open,78.4,82.5,180,190,200,,200,115,120,-125,,120,180,190,-200,,190,510,SBD
DQ,Krzysztof Szlachetka,M,,,33,Poland,Wraps,Open,80.3,82.5,-273,-273,-273,,,140,-150,,,140,-288,295,-305.5,,295,,SBD
1,Csaba Bajczer,M,,,21,Hungary,Wraps,Open,88.5,90,285,-295,295,,295,175,182.5,-185,,182.5,330,340,-345,,340,817.5,SBD
2,Julien Borg,M,,,31,Germany,Wraps,Open,89.8,90,-285,285,-310,,285,200,210,-215,,210,295,307.5,-317.5,,307.5,802.5,SBD
3,Marcus Rosmalm,M,,,30,Sweden,Wraps,Open,87,90,230,250,-270,,250,190,-200,-200,,190,250,275,285,,285,725,SBD
4,Marcin Cichy,M,,,26,Poland,Wraps,Open,88.8,90,-265,-265,265,,265,170,175,,,175,265,275,-290,,275,715,SBD
5,Marcin Kosut,M,,,34,Poland,Wraps,Open,89.1,90,270,-285,-285,,270,160,170,-175,,170,270,-280,,,270,710,SBD
6,Mateusz Rufkiewicz,M,,,34,Poland,Wraps,Open,89.1,90,220,242.5,-250,,242.5,-175,180,190,,190,250,267.5,-285,,267.5,700,SBD
7,Patryk Chmura,M,,,26,Poland,Wraps,Open,87.8,90,270,290,-302.5,,290,145,-155,,,145,240,250,-260,,250,685,SBD
8,Michał Łopata,M,,,24,Poland,Wraps,Open,87.1,90,235,250,-255,,250,145,152.5,-157.5,,152.5,-275,280,-297.5,,280,682.5,SBD
9,Krystian Chmura,M,,,25,Poland,Wraps,Open,89.4,90,235,250,-265,,250,147.5,-152.5,152.5,,152.5,245,262.5,-285,,262.5,665,SBD
10,Mariusz Stachowiak,M,,,24,Poland,Wraps,Open,88.6,90,-215,-222.5,222.5,,222.5,155,162.5,-167.5,,162.5,220,240,-257.5,,240,625,SBD
11,Maciej Brodecki,M,,,24,Poland,Wraps,Open,89.7,90,225,-237.5,237.5,,237.5,120,125,130,,130,240,257.5,-270,,257.5,625,SBD
12,Michal Jucha,M,,,29,Poland,Wraps,Open,88.6,90,205,215,220,,220,120,125,-130,,125,220,230,-240,,230,575,SBD
13,Łukasz Dobrowolski,M,,,38,Poland,Wraps,Open,87.1,90,185,195,-205,,195,130,137.5,142.5,,142.5,200,215,225,,225,562.5,SBD
14,Jan Przybysz,M,,,27,Poland,Wraps,Open,88.1,90,185,195,205,,205,115,120,125,,125,210,222.5,-232.5,,222.5,552.5,SBD
15,Piotr Celeban,M,,,37,Poland,Wraps,Open,88.9,90,180,190,200,,200,102.5,-107.5,-107.5,,102.5,190,200,207.5,,207.5,510,SBD
16,Norbert Marosik,M,,,29,Poland,Wraps,Open,86.7,90,140,147.5,155,,155,95,100,102.5,,102.5,190,200,205,,205,462.5,SBD
17,Denis Szymanski,M,,,25,Poland,Wraps,Open,90,90,150,-162.5,-162.5,,150,117.5,122.5,-130,,122.5,170,180,190,,190,462.5,SBD
18,Bartosz Skalmierski,M,,,28,Poland,Wraps,Open,85.2,90,165,175,185,,185,90,-100,-100,,90,150,160,170,,170,445,SBD
DQ,Adrian Drozdzynski,M,,,26,Poland,Wraps,Open,88.5,90,-250,-250,-250,,,-130,,,,,-225,,,,,,SBD
DQ,Amadeusz Dziemianko,M,,,29,Poland,Wraps,Open,89.5,90,-290,290,-300,,290,-190,-190,-190,,,,,,,,,SBD
1,Łukasz Kojder,M,,,29,Poland,Wraps,Open,100,100,250,260,265,,265,185,195,200,,200,285,305,315,,315,780,SBD
2,Mateusz Morawiec,M,,,37,Poland,Wraps,Open,96.8,100,-270,280,-290,,280,160,167.5,170,,170,290,305,320,,320,770,SBD
3,Paweł Przybyłowicz,M,,,32,Poland,Wraps,Open,99,100,255,265,-275,,265,205,211,-215,,211,265,280,-295,,280,756,SBD
4,Patryk Kunwalt,M,,,27,Poland,Wraps,Open,99.7,100,240,-260,-265,,240,150,155,157.5,,157.5,260,275,280,,280,677.5,SBD
5,Michał Marciniak,M,,,32,Poland,Wraps,Open,99.8,100,250,265,-275,,265,180,-190,-190,,180,200,,,,200,645,SBD
6,Kacper Kowalewski,M,,,26,Poland,Wraps,Open,95.7,100,-220,-232.5,232.5,,232.5,157.5,-167.5,167.5,,167.5,210,220,225,,225,625,SBD
7,Adrian Pańczyk,M,,,26,Poland,Wraps,Open,97.7,100,240,-255,-255,,240,120,127.5,132.5,,132.5,220,230,235,,235,607.5,SBD
8,Paweł Kamiński,M,,,26,Poland,Wraps,Open,97.1,100,230,240,250,,250,105,110,115,,115,215,225,235,,235,600,SBD
9,Alessandro Matrone,M,,,27,Italy,Wraps,Open,94.3,100,185,210,-220,,210,110,115,-122.5,,115,265,-282.5,-290,,265,590,SBD
10,Adam Chaberko,M,,,34,Poland,Wraps,Open,92.9,100,210,220,-230,,220,120,125,-130,,125,210,225,235,,235,580,SBD
11,Tomasz Szymaniuk,M,,,24,Poland,Wraps,Open,99,100,200,215,-225,,215,125,130,-132.5,,130,215,-225,225,,225,570,SBD
12,Tomasz Kolasiński,M,,,24,Poland,Wraps,Open,93.8,100,190,205,-215,,205,120,127.5,-130,,127.5,205,217.5,-230,,217.5,550,SBD
13,Mikolaj Lysek,M,,,24,Poland,Wraps,Open,97,100,180,195,-205,,195,110,-115,115,,115,220,227.5,232.5,,232.5,542.5,SBD
14,Marcin Gryczon,M,,,38,Poland,Wraps,Open,97.6,100,190,200,-210,,200,110,120,-130,,120,200,210,220,,220,540,SBD
15,Adrian Milewski,M,,,31,Poland,Wraps,Open,92.4,100,180,190,205,,205,122.5,127.5,132.5,,132.5,180,-190,190,,190,527.5,SBD
16,Filip Haniewicz,M,,,27,Poland,Wraps,Open,99.1,100,165,175,180,,180,115,122.5,-127.5,,122.5,180,-190,190,,190,492.5,SBD
17,Artur Smolarkiewicz,M,,,28,Poland,Wraps,Open,95.7,100,175,182.5,190,,190,107.5,-112.5,112.5,,112.5,165,175,185,,185,487.5,SBD
1,Wojciech Piela,M,,,28,Poland,Wraps,Open,105.8,110,300,-315,315,,315,185,195,197.5,,197.5,270,280,-290,,280,792.5,SBD
2,Mateusz Olczyk,M,,,25,Poland,Wraps,Open,105.1,110,280,300,320,,320,175,185,-190,,185,-280,280,-305,,280,785,SBD
3,Damian Głuchowski,M,,,29,Poland,Wraps,Open,104.5,110,-280,280,-300,,280,200,-207.5,-207.5,,200,270,-290,-290,,270,750,SBD
4,Szymon Pugacewicz,M,,,23,Poland,Wraps,Open,108.6,110,250,-260,260,,260,190,-200,-200,,190,275,-285,-285,,275,725,SBD
5,Konrad Szafran,M,,,26,Poland,Wraps,Open,108.5,110,250,260,270,,270,135,145,150,,150,270,-285,,,270,690,SBD
6,Mateusz Wojciechowski,M,,,28,Poland,Wraps,Open,110,110,220,240,-250,,240,160,-165,-165,,160,270,290,-300,,290,690,SBD
7,Dawid Gurzyński,M,,,24,Poland,Wraps,Open,107.4,110,230,245,-250,,245,110,120,125,,125,240,255,-270,,255,625,SBD
8,Jakub Popielarz,M,,,28,Poland,Wraps,Open,106,110,210,220,230,,230,130,137.5,142.5,,142.5,225,240,-250,,240,612.5,SBD
9,Witold Blazinski,M,,,37,Poland,Wraps,Open,108.2,110,225,235,-245,,235,130,135,140,,140,210,220,230,,230,605,SBD
10,Marcin Statkiewicz,M,,,25,Poland,Wraps,Open,100.8,110,295,310,-320,,310,180,185,-190,,185,75,,,,75,570,SBD
DQ,Szymon Bielucy,M,,,41,Poland,Wraps,Open,107.1,110,-240,-255,255,,255,155,165,-172.5,,165,-280,-280,-280,,,,SBD
DQ,Przemysław Brodala,M,,,34,Poland,Wraps,Open,108.2,110,-280,-280,-280,,,180,-187.5,-187.5,,180,280,-300,-300,,280,,SBD
DQ,Attila Zoltán Bús,M,,,37,Hungary,Wraps,Open,108.8,110,-250,-255,-255,,,-140,,,,,,,,,,,SBD
1,Serhii Yaremchuk,M,,,33,Ukraine,Wraps,Open,115.4,125,290,310,-320,,310,220,230,-235,,230,280,300,-315,,300,840,SBD
2,Karol Frąckowiak,M,,,30,Poland,Wraps,Open,117.6,125,300,315,325,,325,160,170,172.5,,172.5,280,300,-307.5,,300,797.5,SBD
3,Artur Solka,M,,,29,Poland,Wraps,Open,117,125,-290,290,305,,305,180,187.5,-192.5,,187.5,260,-270,270,,270,762.5,SBD
4,Tomáš Tóth,M,,,32,Slovakia,Wraps,Open,111.1,125,250,255,260,,260,170,175,180,,180,-300,-300,300,-343,300,740,SBD
5,Karol Prawdzik,M,,,30,Poland,Wraps,Open,120,125,230,240,-250,,240,200,210,212.5,,212.5,260,270,280,,280,732.5,SBD
6,Michal Klimsiak,M,,,35,Poland,Wraps,Open,121.4,125,-200,210,-220,,210,130,140,150,,150,220,235,250,,250,610,SBD
7,Kamil Kulpa,M,,,34,Poland,Wraps,Open,124.7,125,235,-245,-245,,235,-145,145,-150,,145,-215,-215,215,,215,595,SBD
DQ,Rafał Wójcik,M,,,35,Poland,Wraps,Open,115.8,125,-280,-290,-290,,,195,200,-205,,200,300,315,325,,325,,SBD
DQ,Konrad Nowak,M,,,30,Poland,Wraps,Open,123.1,125,240,250,255,,255,180,187.5,-192.5,,187.5,-240,-250,,,,,SBD
1,Stefan Dahl,M,,,33,Sweden,Wraps,Open,139.7,140,340,-370,-370,,340,200,220,-225,,220,320,332.5,-340,,332.5,892.5,SBD
2,Bernard Arendt,M,,,37,Poland,Wraps,Open,127,140,315,325,335,,335,240,250,255,,255,300,-310,,,300,890,SBD
3,Patryk Łazor,M,,,29,Poland,Wraps,Open,129.3,140,325,-340,340,,340,195,200,,,200,320,335,-345,,335,875,SBD
4,Gábor Bencze,M,,,44,Hungary,Wraps,Open,131.4,140,325,-345,-352.5,,325,205,215,-220,,215,-325,335,-340,,335,875,SBD
5,Sławomir Grzona,M,,,34,Poland,Wraps,Open,125.1,140,320,330,-340,,330,180,190,195,,195,310,330,340,,340,865,SBD
6,Maciej Młynarczyk,M,,,31,Poland,Wraps,Open,125.8,140,310,325,-335,,325,200,210,215,,215,-300,310,320,,320,860,SBD
DQ,Adam Gembarski,M,,,30,Poland,Wraps,Open,128.4,140,260,-280,-280,,260,170,177.5,-185,,177.5,-300,-300,-300,,,,SBD
1,Łukasz Klugiewicz,M,,,28,Poland,Wraps,Open,145.2,140+,370,-390,-390,,370,200,210,220,,220,320,340,355,,355,945,SBD
2,Bartłomiej Jaruga,M,,,36,Poland,Wraps,Open,150.4,140+,350,-375,375,,375,-240,240,-250,,240,315,330,-340,,330,945,SBD
3,Jakub Dylewski,M,,,25,Poland,Wraps,Open,141.4,140+,-310,310,,,310,180,190,-195,,190,285,300,-310,,300,800,SBD
4,Tomasz Arczewski,M,,,32,Poland,Wraps,Open,153.7,140+,260,-300,-300,,260,180,190,-200,,190,250,-270,270,,270,720,SBD
DQ,Roland Hegedüs,M,,,35,Slovakia,Wraps,Open,142.9,140+,-300,-350,,,,-180,,,,,,,,,,,SBD
1,Michal Strzalek,M,,,14,Poland,Wraps,T13-15,60.7,67.5,100,107.5,-117.5,,107.5,57.5,-62.5,62.5,,62.5,135,142.5,147.5,,147.5,317.5,SBD
1,Jan Wyrebkowski,M,,,17,Poland,Wraps,T16-17,66.6,67.5,150,160,170,,170,75,77.5,-80,,77.5,140,145,150,,150,397.5,SBD
2,Aleks Pyrz,M,,,17,Poland,Wraps,T16-17,62.8,67.5,100,110,130,,130,70,80,85,,85,140,150,157.5,,157.5,372.5,SBD
1,Damian Michalewicz,M,,,17,Poland,Wraps,T16-17,73.7,75,130,-140,145,,145,77.5,80,85,,85,160,170,180,,180,410,SBD
1,Krzysztof Przybylski,M,,,17,Poland,Wraps,T16-17,81.8,82.5,200,210,220,,220,92.5,97.5,100,,100,210,225,235,,235,555,SBD
2,Dawid Bieńko,M,,,17,Poland,Wraps,T16-17,80.9,82.5,170,190,202.5,,202.5,120,131,-135,,131,190,-205,207.5,,207.5,541,SBD
3,Kacper Slodkiewicz,M,,,17,Poland,Wraps,T16-17,80.1,82.5,140,-150,-160,,140,100,110,-115,,110,185,200,-205,,200,450,SBD
1,Ashot Petrosyan,M,,,16,Armenia,Wraps,T16-17,89.9,90,150,200,210,,210,115,125,130,,130,230,245,-260,,245,585,SBD
2,Marek Jasiński,M,,,17,Poland,Wraps,T16-17,88.2,90,165,170,175,,175,107.5,110,-112.5,,110,180,-190,190,,190,475,SBD
1,Bartosz Boratyn,M,,,17,Poland,Wraps,T16-17,99.1,100,210,230,245,,245,-150,150,-157.5,,150,220,-240,-240,,220,615,SBD
2,Hubert Czajkowski,M,,,16,Poland,Wraps,T16-17,94.6,100,150,-175,175,,175,100,110,115,,115,160,180,200,,200,490,SBD
1,Pawel Zdzieblowski,M,,,17,Poland,Wraps,T16-17,104.5,110,-190,190,-200,,190,-95,95,102.5,,102.5,195,207.5,220,,220,512.5,SBD
1,Pawel Wielgosz,M,,,17,Poland,Wraps,T16-17,141.8,140+,180,200,225,,225,87.5,92.5,97.5,,97.5,-180,190,210,,210,532.5,SBD
1,Dawid Lach,M,,,19,Poland,Wraps,T18-19,81.8,82.5,215.5,227.5,-235,,227.5,128,135,140,,140,200,217.5,-232.5,,217.5,585,SBD
2,Kacper Kłaptocz,M,,,19,Poland,Wraps,T18-19,82.5,82.5,185,192.5,200,,200,115,122.5,-127.5,,122.5,215,227.5,235,,235,557.5,SBD
3,Rafael Alfaro Alvarado,M,,,19,Poland,Wraps,T18-19,79.5,82.5,-190,190,-202.5,,190,115,122.5,-127.5,,122.5,190,205,-215,,205,517.5,SBD
1,Konrad Brodzki,M,,,18,Poland,Wraps,T18-19,87.7,90,215,225,-235,,225,120,-130,-130,,120,220,232.5,240,,240,585,SBD
1,Jakub Frączek,M,,,18,Poland,Wraps,T18-19,100.5,110,260,-270,270,,270,127.5,132.5,-137.5,,132.5,240,250,255,,255,657.5,SBD
2,Aleksander Pysz,M,,,19,Poland,Wraps,T18-19,104.5,110,210,220,-225,,220,137.5,-145,-145,,137.5,235,242.5,250,,250,607.5,SBD
3,Emil Golebiowski,M,,,18,Poland,Wraps,T18-19,109.2,110,200,-210,210,,210,125,-135,135,,135,-195,200,210,,210,555,SBD
4,Mikolaj Reczynski,M,,,18,Poland,Wraps,T18-19,106.9,110,172.5,182.5,-190,,182.5,132.5,-140,-140,,132.5,195,205,215,,215,530,SBD
5,Kacper Geborys,M,,,19,Poland,Wraps,T18-19,108.8,110,185,195,-205,,195,95,102.5,-107.5,,102.5,185,202.5,210,,210,507.5,SBD
1,Konstantinos Chorazak,M,,,18,Poland,Wraps,T18-19,125,125,160,-180,180,,180,100,115,122.5,,122.5,-180,180,210,,210,512.5,SBD
1,Pasquale Ricci,M,,,44,Italy,Wraps,M40-49,58.4,60,130,140,145,150,145,,,,,,,,,,,145,S
1,Hayk Afyan,M,,,44,Armenia,Wraps,M40-49,100,100,170,180,-190,,180,,,,,,,,,,,180,S
1,Jakub Koryzna,M,,,46,Poland,Wraps,M40-49,110.7,125,190,200,-210,,200,,,,,,,,,,,200,S
1,Mieczysłąw Maczka,M,,,68,Germany,Wraps,M60-69,82.1,82.5,120,135,-142.5,,135,,,,,,,,,,,135,S
1,Jakub Pączkowski,M,,,25,Poland,Wraps,Open,89.1,90,250,260,265,,265,,,,,,,,,,,265,S
2,Mateusz Rufkiewicz,M,,,34,Poland,Wraps,Open,89.1,90,242.5,,,,242.5,,,,,,,,,,,242.5,S
1,Tibor Kiss,M,,,,Hungary,Wraps,Open,97.4,100,-250,250,260,,260,,,,,,,,,,,260,S
1,Karol Frąckowiak,M,,,30,Poland,Wraps,Open,117.6,125,325,,,,325,,,,,,,,,,,325,S
1,Gábor Kocsis,M,,,30,Hungary,Wraps,Open,133.9,140,-300,300,320,,320,,,,,,,,,,,320,S
DQ,Igor Kalinski,M,,,21,Poland,Raw,J20-23,67.5,67.5,,,,,,-130,-135,-140.5,,,,,,,,,B
1,Sorin Gyula Csicso,M,,,22,Hungary,Raw,J20-23,81.9,82.5,,,,,,120,132.5,137.5,,137.5,,,,,,137.5,B
2,Oleksandr Hembalia,M,,,22,Poland,Raw,J20-23,82,82.5,,,,,,125,132.5,-140,,132.5,,,,,,132.5,B
1,Tomasz Dobras,M,,,23,Poland,Raw,J20-23,88.9,90,,,,,,183,187.5,190,,190,,,,,,190,B
2,Mateusz Szcześniak,M,,,23,Poland,Raw,J20-23,88.1,90,,,,,,170,175,-177.5,,175,,,,,,175,B
3,Michal Warsinski,M,,,20,Poland,Raw,J20-23,89.1,90,,,,,,155,162.5,170,,170,,,,,,170,B
1,Sebastian Wierzgacz,M,,,23,Poland,Raw,J20-23,97.3,100,,,,,,175,180,182.5,,182.5,,,,,,182.5,B
2,Roberto Cvijetić,M,,,22,Croatia,Raw,J20-23,99.4,100,,,,,,145,162.5,-170,,162.5,,,,,,162.5,B
3,Tamás Lóczi,M,,,21,Hungary,Raw,J20-23,90.1,100,,,,,,122.5,130,-137.5,,130,,,,,,130,B
1,Jakub Mazurek,M,,,20,Poland,Raw,J20-23,106.4,110,,,,,,172.5,177.5,-182.5,,177.5,,,,,,177.5,B
1,Kacper Bialek,M,,,23,Poland,Raw,J20-23,111.1,125,,,,,,162.5,170,175,,175,,,,,,175,B
2,Marcin Muzyka,M,,,23,Poland,Raw,J20-23,110.1,125,,,,,,145,-155,-155,,145,,,,,,145,B
1,János Tóth,M,,,48,Hungary,Raw,M40-49,58.1,60,,,,,,75,80,-82.5,,80,,,,,,80,B
1,Sebastian Białachowski,M,,,46,Poland,Raw,M40-49,73,75,,,,,,130,-140,140,,140,,,,,,140,B
1,Tomasz Mantur,M,,,48,Poland,Raw,M40-49,81.1,82.5,,,,,,152.5,155,-160,,155,,,,,,155,B
2,Igors Marudins,M,,,46,Latvia,Raw,M40-49,80.5,82.5,,,,,,135,142.5,145,,145,,,,,,145,B
1,László Németh,M,,,42,Hungary,Raw,M40-49,89.7,90,,,,,,170,180,185,,185,,,,,,185,B
2,Lukasz Rycombel,M,,,46,Poland,Raw,M40-49,86.8,90,,,,,,152.5,160,165,,165,,,,,,165,B
3,Grzegorz Pisalski,M,,,41,Poland,Raw,M40-49,88.6,90,,,,,,152.5,-157.5,160,,160,,,,,,160,B
4,Ján Cuprišin,M,,,48,Slovakia,Raw,M40-49,87.6,90,,,,,,140,150,-157.5,,150,,,,,,150,B
1,Jan Habart,M,,,45,Germany,Raw,M40-49,100,100,,,,,,210,215,220,,220,,,,,,220,B
2,Francesco Scandurra,M,,,41,Italy,Raw,M40-49,94.9,100,,,,,,180,190,197.5,,197.5,,,,,,197.5,B
3,Michał Kopiec,M,,,48,Poland,Raw,M40-49,94,100,,,,,,180,190,-195,,190,,,,,,190,B
4,Mihails Rekaikins,M,,,46,Latvia,Raw,M40-49,98.2,100,,,,,,-160,160,-165,,160,,,,,,160,B
1,Tomasz Trzciński,M,,,40,Poland,Raw,M40-49,102.3,110,,,,,,215,220,-222.5,,220,,,,,,220,B
2,Lukasz Warmuz,M,,,40,Poland,Raw,M40-49,106.7,110,,,,,,170,177.5,-180,,177.5,,,,,,177.5,B
3,Attila Marosi,M,,,49,Hungary,Raw,M40-49,103.7,110,,,,,,150,155,160,,160,,,,,,160,B
1,Paweł Liszcz,M,,,44,Poland,Raw,M40-49,115.4,125,,,,,,262.5,-265,-265,,262.5,,,,,,262.5,B
2,Rafał Pałubicki,M,,,46,Poland,Raw,M40-49,115.3,125,,,,,,225,-230,230,,230,,,,,,230,B
3,Jakub Koryzna,M,,,46,Poland,Raw,M40-49,110.7,125,,,,,,195,,,,195,,,,,,195,B
4,Piotr Szczesny,M,,,42,Poland,Raw,M40-49,111.1,125,,,,,,140,150,-160,,150,,,,,,150,B
1,Maciej Kislewski,M,,,43,Poland,Raw,M40-49,126.7,140,,,,,,200,210,-220,,210,,,,,,210,B
1,Norbert Hajas,M,,,50,Hungary,Raw,M50-59,67.6,75,,,,,,-140,140,142.5,,142.5,,,,,,142.5,B
1,Zygmunt Wysocki,M,,,56,Poland,Raw,M50-59,82.2,82.5,,,,,,155,160,163,,163,,,,,,163,B
1,Tam Nguyen,M,,,51,Slovakia,Raw,M50-59,89,90,,,,,,130,140,-150,,140,,,,,,140,B
1,Oļegs Illarionovs,M,,,57,Latvia,Raw,M50-59,96,100,,,,,,175,185,-190,,185,,,,,,185,B
1,Krzysztof Golendzinowski,M,,,51,Poland,Raw,M50-59,106.6,110,,,,,,170,180,-187.5,,180,,,,,,180,B
2,László Baross,M,,,51,Hungary,Raw,M50-59,109.3,110,,,,,,140,147.5,152.5,,152.5,,,,,,152.5,B
1,Robert Pastuszka,M,,,51,Poland,Raw,M50-59,117.1,125,,,,,,170,175,180,,180,,,,,,180,B
2,Károly Németh,M,,,51,Hungary,Raw,M50-59,122.7,125,,,,,,150,-160,-160,,150,,,,,,150,B
1,Csaba Molnár,M,,,58,Hungary,Raw,M50-59,132.9,140,,,,,,175,185,,,185,,,,,,185,B
1,Zsolt Tóth,M,,,52,Hungary,Raw,M50-59,141.7,140+,,,,,,195,205,-212.5,,205,,,,,,205,B
1,Dariusz Kołodziejczyk,M,,,67,Poland,Raw,M60-69,75.9,82.5,,,,,,100,-110,-110,,100,,,,,,100,B
2,Mieczysłąw Maczka,M,,,68,Germany,Raw,M60-69,82.1,82.5,,,,,,90,97.5,100,,100,,,,,,100,B
1,Mirosław Urbaniak,M,,,61,Poland,Raw,M60-69,88.9,90,,,,,,150,155,-157.5,,155,,,,,,155,B
2,Mats Eriksson,M,,,61,Sweden,Raw,M60-69,89,90,,,,,,147.5,152.5,,,152.5,,,,,,152.5,B
1,Krzysztof Kłopocki,M,,,63,Poland,Raw,M60-69,110.1,125,,,,,,175,180,182.5,-185,182.5,,,,,,182.5,B
1,Roman Wanot,M,,,74,Poland,Raw,M70+,88.7,90,,,,,,-70,70,85,,85,,,,,,85,B
1,Jan Cenkiel,M,,,73,Poland,Raw,M70+,90.7,100,,,,,,125,132.5,-135,,132.5,,,,,,132.5,B
1,Jakub Stalica,M,,,25,Poland,Raw,MPF,66.5,67.5,,,,,,-95,95,-102.5,,95,,,,,,95,B
1,Sebastian Białachowski,M,,,46,Poland,Raw,MPF,73,75,,,,,,130,-140,140,,140,,,,,,140,B
1,Tomasz Mantur,M,,,48,Poland,Raw,MPF,81.1,82.5,,,,,,152.5,155,-160,,155,,,,,,155,B
2,Kalle Kananen,M,,,28,Finland,Raw,MPF,78.3,82.5,,,,,,90,100,107.5,,107.5,,,,,,107.5,B
1,Grzegorz Joka,M,,,35,Poland,Raw,MPF,89.3,90,,,,,,180,185,-190,,185,,,,,,185,B
2,Mateusz Szcześniak,M,,,23,Poland,Raw,MPF,88.1,90,,,,,,170,175,-177.5,,175,,,,,,175,B
3,Michal Warsinski,M,,,20,Poland,Raw,MPF,89.1,90,,,,,,155,162.5,170,,170,,,,,,170,B
4,Lukasz Rycombel,M,,,46,Poland,Raw,MPF,86.8,90,,,,,,152.5,160,165,,165,,,,,,165,B
1,Michał Matynia,M,,,35,Poland,Raw,MPF,99.3,100,,,,,,180,185,-190,,185,,,,,,185,B
2,Michał Sawicki,M,,,,Poland,Raw,MPF,98.7,100,,,,,,165,170,-175,,170,,,,,,170,B
1,Tomasz Trzciński,M,,,40,Poland,Raw,MPF,102.3,110,,,,,,215,220,-222.5,,220,,,,,,220,B
2,Damian Markowski,M,,,31,Poland,Raw,MPF,106,110,,,,,,190,200,207.5,,207.5,,,,,,207.5,B
3,Piotr Szczerbik,M,,,33,Poland,Raw,MPF,104.3,110,,,,,,190,197.5,205,,205,,,,,,205,B
4,Mateusz Młynarczyk,M,,,34,Poland,Raw,MPF,105.6,110,,,,,,190,197.5,-202.5,,197.5,,,,,,197.5,B
5,Jakub Mazurek,M,,,20,Poland,Raw,MPF,106.4,110,,,,,,172.5,177.5,-182.5,,177.5,,,,,,177.5,B
6,Lukasz Warmuz,M,,,40,Poland,Raw,MPF,106.7,110,,,,,,170,177.5,-180,,177.5,,,,,,177.5,B
1,Radosław Smoliński,M,,,37,Poland,Raw,MPF,123.7,125,,,,,,200,210,215,,215,,,,,,215,B
2,Karol Prawdzik,M,,,30,Poland,Raw,MPF,120,125,,,,,,,,212.5,,212.5,,,,,,212.5,B
3,Paweł Sztachelek,M,,,31,Poland,Raw,MPF,120.8,125,,,,,,185,195,200,,200,,,,,,200,B
4,Mateusz Rydzewski,M,,,28,Poland,Raw,MPF,111.6,125,,,,,,180,185,190,,190,,,,,,190,B
5,Kacper Bialek,M,,,23,Poland,Raw,MPF,111.1,125,,,,,,162.5,170,175,,175,,,,,,175,B
6,Artur Wisniewski,M,,,,Poland,Raw,MPF,115.6,125,,,,,,155,165,172.5,,172.5,,,,,,172.5,B
7,Marcin Muzyka,M,,,23,Poland,Raw,MPF,110.1,125,,,,,,145,-155,-155,,145,,,,,,145,B
1,Maciej Kuźma,M,,,28,Poland,Raw,MPF,147.8,140+,,,,,,235,240,245,,245,,,,,,245,B
2,Marcin Jankowski,M,,,38,Poland,Raw,MPF,150.5,140+,,,,,,190,200,-210,,200,,,,,,200,B
1,Rafał Roch,M,,,39,Poland,Raw,Open,51.1,52,,,,,,155,165,170,,170,,,,,,170,B
1,Krzysztof Kuraciński,M,,,34,Poland,Raw,Open,66.2,67.5,,,,,,130,135,140,,140,,,,,,140,B
2,Jakub Stalica,M,,,25,Poland,Raw,Open,66.5,67.5,,,,,,-95,95,-102.5,,95,,,,,,95,B
1,Roman Eremashvili,M,,,41,Poland,Raw,Open,73,75,,,,,,220,-225,-225,,220,,,,,,220,B
2,Maciej Dobrzyński,M,,,31,Poland,Raw,Open,73.5,75,,,,,,125,135,-142.5,,135,,,,,,135,B
1,Maciej Kreczmer,M,,,28,Poland,Raw,Open,76.7,82.5,,,,,,-175,175,-180,,175,,,,,,175,B
2,Janusz Łazorko,M,,,32,Poland,Raw,Open,81.5,82.5,,,,,,150,-155,155,,155,,,,,,155,B
3,Kalle Kananen,M,,,28,Finland,Raw,Open,78.3,82.5,,,,,,90,100,107.5,,107.5,,,,,,107.5,B
1,Vladimir Agasaryan,M,,,31,Lithuania,Raw,Open,88.6,90,,,,,,190,-195,195,,195,,,,,,195,B
2,Grzegorz Joka,M,,,35,Poland,Raw,Open,89.3,90,,,,,,180,185,-190,,185,,,,,,185,B
3,Jakub Łabaj,M,,,29,Poland,Raw,Open,87.9,90,,,,,,177.5,-185,-185,,177.5,,,,,,177.5,B
4,Robert Latincic,M,,,24,Croatia,Raw,Open,89.4,90,,,,,,140,-145,145,,145,,,,,,145,B
1,Maciej Sochacki,M,,,37,Poland,Raw,Open,97.7,100,,,,,,220,227.5,-235,,227.5,,,,,,227.5,B
2,Piotr Balcerek,M,,,43,Poland,Raw,Open,99.2,100,,,,,,215,222.5,-230,,222.5,,,,,,222.5,B
3,Ákos Oláh,M,,,33,Hungary,Raw,Open,99.2,100,,,,,,205,215,220,,220,,,,,,220,B
4,Jan Habart,M,,,45,Germany,Raw,Open,100,100,,,,,,210,215,220,,220,,,,,,220,B
5,Michał Matynia,M,,,35,Poland,Raw,Open,99.3,100,,,,,,180,185,-190,,185,,,,,,185,B
6,Kamil Zdziebłowski,M,,,36,Poland,Raw,Open,96.7,100,,,,,,165,170,-175,,170,,,,,,170,B
7,Michał Sawicki,M,,,,Poland,Raw,Open,98.7,100,,,,,,165,170,-175,,170,,,,,,170,B
8,Marek Szymański,M,,,34,Poland,Raw,Open,98.5,100,,,,,,140,-142.5,-142.5,,140,,,,,,140,B
1,Ádám Moszkál,M,,,26,Hungary,Raw,Open,105.4,110,,,,,,250,-265,-265,,250,,,,,,250,B
2,Damian Markowski,M,,,31,Poland,Raw,Open,106,110,,,,,,190,200,207.5,,207.5,,,,,,207.5,B
3,Piotr Szczerbik,M,,,33,Poland,Raw,Open,104.3,110,,,,,,190,197.5,205,,205,,,,,,205,B
4,Mateusz Młynarczyk,M,,,34,Poland,Raw,Open,105.6,110,,,,,,190,197.5,-202.5,,197.5,,,,,,197.5,B
5,Aniello Noceroni,M,,,35,Italy,Raw,Open,110,110,,,,,,135,145,-150,,145,,,,,,145,B
1,Serhii Yaremchuk,M,,,33,Latvia,Raw,Open,115.4,125,,,,,,,,230,,230,,,,,,230,B
2,Radosław Smoliński,M,,,37,Poland,Raw,Open,123.7,125,,,,,,200,210,215,,215,,,,,,215,B
3,Karol Prawdzik,M,,,30,Poland,Raw,Open,120,125,,,,,,,,212.5,,212.5,,,,,,212.5,B
4,Rafał Wójcik,M,,,35,Poland,Raw,Open,115.8,125,,,,,,,,200,,200,,,,,,200,B
5,Adam Chlopek,M,,,31,Poland,Raw,Open,117.7,125,,,,,,200,-207.5,-207.5,,200,,,,,,200,B
6,Paweł Sztachelek,M,,,31,Poland,Raw,Open,120.8,125,,,,,,185,195,200,,200,,,,,,200,B
7,Mateusz Rydzewski,M,,,28,Poland,Raw,Open,111.6,125,,,,,,180,185,190,,190,,,,,,190,B
8,Artur Wisniewski,M,,,,Poland,Raw,Open,115.6,125,,,,,,155,165,172.5,,172.5,,,,,,172.5,B
1,Bernard Arendt,M,,,37,Poland,Raw,Open,127,140,,,,,,255,,,,255,,,,,,255,B
2,Tomasz Chwalczuk,M,,,33,Poland,Raw,Open,139.2,140,,,,,,230,237.5,-242.5,,237.5,,,,,,237.5,B
3,Piotr Świderski,M,,,30,Poland,Raw,Open,133,140,,,,,,227.5,235,-242.5,,235,,,,,,235,B
4,Dariusz Nowosielski,M,,,39,Poland,Raw,Open,126.5,140,,,,,,182.5,200,-205,,200,,,,,,200,B
1,Maciej Kuźma,M,,,28,Poland,Raw,Open,147.8,140+,,,,,,235,240,245,,245,,,,,,245,B
2,Bartłomiej Jaruga,M,,,36,Poland,Raw,Open,150.4,140+,,,,,,240,,,,240,,,,,,240,B
3,Palma Andrea Di,M,,,34,Italy,Raw,Open,143.1,140+,,,,,,200,210,215,,215,,,,,,215,B
4,Marcin Jankowski,M,,,38,Poland,Raw,Open,150.5,140+,,,,,,190,200,-210,,200,,,,,,200,B
1,Kornel Czajkowski,M,,,13,Poland,Raw,T13-15,59.6,60,,,,,,55,60,62.5,,62.5,,,,,,62.5,B
1,Jan Bulkowski,M,,,14,Poland,Raw,T13-15,69.2,75,,,,,,82.5,87.5,90,93,90,,,,,,90,B
1,Michal Serafin,M,,,15,Poland,Raw,T13-15,92.6,100,,,,,,100,-107.5,110,,110,,,,,,110,B
1,Mateusz Zdzieblowski,M,,,16,Poland,Raw,T16-17,58.4,60,,,,,,65,-70,70,,70,,,,,,70,B
1,Dawid Bieńko,M,,,17,Poland,Raw,T16-17,80.9,82.5,,,,,,131,,,,131,,,,,,131,B
1,Arnold Ferenc Busznyak,M,,,17,Hungary,Raw,T16-17,97,100,,,,,,95,-100,,,95,,,,,,95,B
1,Lukasz Kazmierczak,M,,,18,Poland,Raw,T18-19,73.3,75,,,,,,-130,130,-135,,130,,,,,,130,B
1,Ľubomír Dvorový,M,,,18,Slovakia,Raw,T18-19,88.2,90,,,,,,135,140,-142.5,,140,,,,,,140,B
1,Bartosz Szczęsny,M,,,19,Poland,Raw,T18-19,92.6,100,,,,,,120,127.5,-132.5,,127.5,,,,,,127.5,B
1,Mihails Rekaikins,M,,,46,Latvia,Multi-ply,M40-49,98.2,100,,,,,,-205,-205,205,,205,,,,,,205,B
1,Attila Marosi,M,,,49,Hungary,Multi-ply,M40-49,103.7,110,,,,,,160,-170,170,,170,,,,,,170,B
2,Karen Petrosyan,M,,,47,Armenia,Multi-ply,M40-49,104.4,110,,,,,,130,-150,,,130,,,,,,130,B
1,Rafał Pałubicki,M,,,46,Poland,Multi-ply,M40-49,115.3,125,,,,,,360,375,-400,,375,,,,,,375,B
2,Ján Šiska,M,,,42,Slovakia,Multi-ply,M40-49,123,125,,,,,,210,220,-250,,220,,,,,,220,B
1,Oskars Zvarts,M,,,44,Ireland,Multi-ply,M40-49,147.2,140+,,,,,,270,-290,-300,,270,,,,,,270,B
1,Károly Németh,M,,,51,Hungary,Multi-ply,M50-59,122.7,125,,,,,,150,160,175,,175,,,,,,175,B
1,Csaba Molnár,M,,,58,Hungary,Multi-ply,M50-59,132.9,140,,,,,,230,260,-270,,260,,,,,,260,B
1,Mieczysłąw Maczka,M,,,68,Germany,Multi-ply,M60-69,82.1,82.5,,,,,,90,97.5,100,,100,,,,,,100,B
1,Mats Eriksson,M,,,61,Sweden,Multi-ply,M60-69,89,90,,,,,,170,180,-190,,180,,,,,,180,B
1,Stefan Sochaňski,M,,,74,Poland,Multi-ply,M70+,85.6,90,,,,,,82.5,92.5,,,92.5,,,,,,92.5,B
1,Artyom Soloyan,M,,,36,Armenia,Multi-ply,MPF,88,90,,,,,,180,190,-195,,190,,,,,,190,B
1,Aram Margaryan,M,,,27,Armenia,Multi-ply,MPF,125,125,,,,,,150,-155,,,150,,,,,,150,B
1,Jussi Kananen,M,,,38,Finland,Multi-ply,MPF,151.7,140+,,,,,,200,-230.5,,,200,,,,,,200,B
1,Bogusław Ufir,M,,,29,Poland,Multi-ply,Open,68.4,75,,,,,,213,217.5,-219,,217.5,,,,,,217.5,B
1,Erik Valent,M,,,38,Slovakia,Multi-ply,Open,79.3,82.5,,,,,,220,250,270,280,270,,,,,,270,B
1,Artyom Soloyan,M,,,36,Armenia,Multi-ply,Open,88,90,,,,,,180,190,-195,,190,,,,,,190,B
1,Tomasz Obcowski,M,,,,Poland,Multi-ply,Open,105.6,110,,,,,,350,370,-400,,370,,,,,,370,B
DQ,Grzegorz Wałga,M,,,,Poland,Multi-ply,Open,100.6,110,,,,,,-330,-330,-330,,,,,,,,,B
1,Rafał Pałubicki,M,,,46,Poland,Multi-ply,Open,115.3,125,,,,,,360,375,-400,,375,,,,,,375,B
2,Ján Šiska,M,,,42,Slovakia,Multi-ply,Open,123,125,,,,,,210,220,-250,,220,,,,,,220,B
3,Aram Margaryan,M,,,27,Armenia,Multi-ply,Open,125,125,,,,,,150,-155,,,150,,,,,,150,B
1,Jussi Kananen,M,,,38,Finland,Multi-ply,Open,151.7,140+,,,,,,200,-230.5,,,200,,,,,,200,B
1,Gábor Galambos,M,,,38,Hungary,Multi-ply,Paralympic,94.9,100,,,,,,105,110,115,,115,,,,,,115,B
1,Armen Nikoghosyan,M,,,16,Armenia,Multi-ply,T16-17,55,56,,,,,,90,100,105,,105,,,,,,105,B
1,Arnold Ferenc Busznyak,M,,,17,Hungary,Multi-ply,T16-17,97,100,,,,,,-115,115,,,115,,,,,,115,B
1,Sorin Gyula Csicso,M,,,22,Hungary,Unlimited,J20-23,81.9,82.5,,,,,,180,-195,195,,195,,,,,,195,B
1,Artur Wisniewski,M,,,,Poland,Unlimited,MPF,115.6,125,,,,,,210,-225,-230,,210,,,,,,210,B
1,Jussi Kananen,M,,,38,Finland,Unlimited,MPF,151.7,140+,,,,,,210,225,250,,250,,,,,,250,B
1,Maksymilian Lubosik,M,,,24,Poland,Unlimited,Open,75.1,82.5,,,,,,-170,170,-195,,170,,,,,,170,B
1,Sebastian Dąbrowski,M,,,42,Poland,Unlimited,Open,94.4,100,,,,,,345,360,365,,365,,,,,,365,B
2,Oļegs Illarionovs,M,,,57,Latvia,Unlimited,Open,96,100,,,,,,230,240,250,,250,,,,,,250,B
3,Mihails Rekaikins,M,,,46,Latvia,Unlimited,Open,98.2,100,,,,,,210,-220,-220,,210,,,,,,210,B
4,Artur Niewczas,M,,,35,Poland,Unlimited,Open,90.7,100,,,,,,-200,200,-230,,200,,,,,,200,B
5,Kamil Zdziebłowski,M,,,36,Poland,Unlimited,Open,96.7,100,,,,,,190,200,-210,,200,,,,,,200,B
DQ,Michał Kopiec,M,,,48,Poland,Unlimited,Open,94,100,,,,,,-260,-260,-260,,,,,,,,,B
1,Tomasz Obcowski,M,,,,Poland,Unlimited,Open,105.6,110,,,,,,340,-355,,,340,,,,,,340,B
2,Krystian Fijałkowski,M,,,30,Poland,Unlimited,Open,105.8,110,,,,,,310,330,335,,335,,,,,,335,B
3,Artur Redestowicz,M,,,48,Poland,Unlimited,Open,107.4,110,,,,,,320,330,335,,335,,,,,,335,B
4,Attila Marosi,M,,,49,Hungary,Unlimited,Open,103.7,110,,,,,,210,220,230,,230,,,,,,230,B
1,Artur Wisniewski,M,,,,Poland,Unlimited,Open,115.6,125,,,,,,210,-225,-230,,210,,,,,,210,B
DQ,Pawel Bisz,M,,,30,Poland,Unlimited,Open,115.3,125,,,,,,-300,-300,-300,,,,,,,,,B
DQ,Rafał Pałubicki,M,,,46,Poland,Unlimited,Open,115.3,125,,,,,,-350,,,,,,,,,,,B
1,Robert Wiejas,M,,,45,Poland,Unlimited,Open,135.3,140,,,,,,310,325,-345,,325,,,,,,325,B
1,Jussi Kananen,M,,,38,Finland,Unlimited,Open,151.7,140+,,,,,,210,225,250,,250,,,,,,250,B
1,Sebastian Świtoński,M,,,24,Poland,Unlimited,Paralympic,87,90,,,,,,230,-260,260,-280.5,260,,,,,,260,B
1,Simone Tisi,M,,,21,Italy,Raw,J20-23,73.3,75,,,,,,,,,,,155,170,177.5,,177.5,177.5,D
1,Marek Petro,M,,,20,Slovakia,Raw,J20-23,81.6,82.5,,,,,,,,,,,195,202.5,-210,,202.5,202.5,D
1,Bartosz Szymaszko,M,,,22,Poland,Raw,J20-23,89.2,90,,,,,,,,,,,262.5,272.5,-280.5,,272.5,272.5,D
2,Damian Kolodynski,M,,,23,Poland,Raw,J20-23,89.4,90,,,,,,,,,,,240,250,-260,,250,250,D
3,Michal Warsinski,M,,,20,Poland,Raw,J20-23,89.1,90,,,,,,,,,,,200,215,225,,225,225,D
1,Roberto Cvijetić,M,,,22,Croatia,Raw,J20-23,99.4,100,,,,,,,,,,,280,300,320.5,-325,320.5,320.5,D
2,Tomasz Małysz,M,,,23,Poland,Raw,J20-23,98.2,100,,,,,,,,,,,220,235,240,,240,240,D
1,Angelo Finelli,M,,,47,Italy,Raw,M40-49,70.5,75,,,,,,,,,,,190,200,205,,205,205,D
1,László Németh,M,,,42,Hungary,Raw,M40-49,89.7,90,,,,,,,,,,,200,210,220,,220,220,D
1,Sebastian Brzyski,M,,,43,Poland,Raw,M40-49,96.6,100,,,,,,,,,,,250,260,270,,270,270,D
1,Karen Petrosyan,M,,,47,Armenia,Raw,M40-49,104.4,110,,,,,,,,,,,180,200,,,200,200,D
1,Jozef Tomaszewski,M,,,42,Poland,Raw,M40-49,120.9,125,,,,,,,,,,,265,285,292.5,-300.5,292.5,292.5,D
2,Jakub Koryzna,M,,,46,Poland,Raw,M40-49,110.7,125,,,,,,,,,,,230,240,250,,250,250,D
3,Piotr Szczesny,M,,,42,Poland,Raw,M40-49,111.1,125,,,,,,,,,,,230,-240,-240,,230,230,D
1,Mariusz Rufkiewicz,M,,,55,Poland,Raw,M50-59,100.7,110,,,,,,,,,,,225,240,250,,250,250,D
2,Tibor Gejdoš,M,,,58,Slovakia,Raw,M50-59,104.6,110,,,,,,,,,,,230,250,-261.5,,250,250,D
1,Robert Nemś,M,,,53,Poland,Raw,M50-59,119.3,125,,,,,,,,,,,260,275,290,,290,290,D
1,Mieczysłąw Maczka,M,,,68,Germany,Raw,M60-69,82.1,82.5,,,,,,,,,,,130,145,150,,150,150,D
1,Peter Herák,M,,,61,Slovakia,Raw,M60-69,89.1,90,,,,,,,,,,,-210,220,240,,240,240,D
1,Wiesław Wrŏbel,M,,,65,Poland,Raw,M60-69,96,100,,,,,,,,,,,240,255,265,,265,265,D
1,Stefan Sochaňski,M,,,74,Poland,Raw,M70+,85.6,90,,,,,,,,,,,165,175,,,175,175,D
1,Michal Warsinski,M,,,20,Poland,Raw,MPF,89.1,90,,,,,,,,,,,200,215,225,,225,225,D
2,Stefan Sochaňski,M,,,74,Poland,Raw,MPF,85.6,90,,,,,,,,,,,165,175,,,175,175,D
1,Viktor Šafránek,M,,,28,Slovakia,Raw,Open,59.3,60,,,,,,,,,,,175,-185,-185,,175,175,D
1,Oleksandr Trondiuk,M,,,26,Ukraine,Raw,Open,74,75,,,,,,,,,,,-270,270,285,-290.5,285,285,D
2,Maciej Dobrzyński,M,,,31,Poland,Raw,Open,73.5,75,,,,,,,,,,,-215,215,-225,,215,215,D
1,Dominik Šafránek,M,,,30,Slovakia,Raw,Open,81.1,82.5,,,,,,,,,,,270,285,295.5,,295.5,295.5,D
1,Radoslaw Rapala,M,,,24,Poland,Raw,Open,83.9,90,,,,,,,,,,,-285,300,315,320.5,315,315,D
2,Szilárd Andrási,M,,,25,Hungary,Raw,Open,89.2,90,,,,,,,,,,,280,292.5,300,,300,300,D
3,Jakub Pączkowski,M,,,25,Poland,Raw,Open,89.1,90,,,,,,,,,,,275,-293,-293,,275,275,D
4,Robert Latincic,M,,,24,Croatia,Raw,Open,89.4,90,,,,,,,,,,,240,260,-270,,260,260,D
DQ,Nikodem Romanowski,M,,,25,Poland,Raw,Open,90,90,,,,,,,,,,,-285,-300,-302.5,,,,D
1,Tomáš Kríž,M,,,29,Slovakia,Raw,Open,96.6,100,,,,,,,,,,,260,270,282.5,,282.5,282.5,D
2,Wojciech Szczygieł,M,,,24,Poland,Raw,Open,92.6,100,,,,,,,,,,,260,275,-282.5,,275,275,D
3,Michal Malinowski,M,,,24,Poland,Raw,Open,90.1,100,,,,,,,,,,,210,220,230,,230,230,D
1,Marcin Borkowski,M,,,29,Poland,Raw,Open,102.6,110,,,,,,,,,,,220,230,235,,235,235,D
2,Marcin Gebusiak,M,,,39,Poland,Raw,Open,110,110,,,,,,,,,,,200,-215,-215,,200,200,D
DQ,Radosław Kozdrach,M,,,26,Poland,Raw,Open,110,110,,,,,,,,,,,-325,-335,-350,,,,D
1,Rafał Wójcik,M,,,35,Poland,Raw,Open,115.8,125,,,,,,,,,,,325,,,,325,325,D
2,Tomáš Tóth,M,,,32,Slovakia,Raw,Open,111.1,125,,,,,,,,,,,300,320,-340,,320,320,D
1,Narek Tamrazyan,M,,,15,Armenia,Raw,T13-15,68.7,75,,,,,,,,,,,-170,175,180,,180,180,D
1,Melsik Martirosyan,M,,,17,Armenia,Raw,T16-17,57,60,,,,,,,,,,,140,155,160,,160,160,D
1,Ashot Petrosyan,M,,,16,Armenia,Raw,T16-17,89.9,90,,,,,,,,,,,240,260,,,260,260,D
2,Gracjan Brzeziński,M,,,17,Poland,Raw,T16-17,87.4,90,,,,,,,,,,,210,232.5,-237.5,,232.5,232.5,D
1,Arnold Ferenc Busznyak,M,,,17,Hungary,Raw,T16-17,97,100,,,,,,,,,,,160,170,185,,185,185,D
1,Maciej Trzonkowski,M,,,19,Poland,Raw,T18-19,88.8,90,,,,,,,,,,,235,-250,-250,,235,235,D
2,Marcin Malinowski,M,,,18,Poland,Raw,T18-19,84.8,90,,,,,,,,,,,200,-225,225,,225,225,D
3,Nikodem Hapka,M,,,19,Poland,Raw,T18-19,85,90,,,,,,,,,,,-210,225,-230,,225,225,D
1,Michal Buranský,M,,,42,Slovakia,Multi-ply,M40-49,81.5,82.5,,,,,,,,,,,240,-252.5,255,-260,255,255,D
1,Ján Cuprišin,M,,,48,Slovakia,Multi-ply,M40-49,87.6,90,,,,,,,,,,,245,257.5,-265,,257.5,257.5,D
1,Grzegorz Drewniany,M,,,45,Poland,Multi-ply,M40-49,99.8,100,,,,,,,,,,,250,275,285,-300.5,285,285,D
1,Ivan Levický,M,,,52,Slovakia,Multi-ply,M50-59,104.9,110,,,,,,,,,,,-275,290,300,305,300,300,D
1,Robert Nemś,M,,,53,Poland,Multi-ply,M50-59,119.3,125,,,,,,,,,,,290,,,,290,290,D
1,Mieczysłąw Maczka,M,,,68,Germany,Multi-ply,M60-69,82.1,82.5,,,,,,,,,,,130,145,150,,150,150,D
1,Mats Eriksson,M,,,61,Sweden,Multi-ply,M60-69,89,90,,,,,,,,,,,220,250,-260,,250,250,D
1,Adam Csupori,M,,,65,Slovakia,Multi-ply,M60-69,99.2,100,,,,,,,,,,,-240,240,260.5,-270,260.5,260.5,D
1,Stefan Sochaňski,M,,,74,Poland,Multi-ply,M70+,85.6,90,,,,,,,,,,,180,195,207.5,,207.5,207.5,D
1,Stefan Sochaňski,M,,,74,Poland,Multi-ply,MPF,85.6,90,,,,,,,,,,,180,195,207.5,,207.5,207.5,D
1,Gor Hovhannisyan,M,,,33,Armenia,Multi-ply,MPF,98.2,100,,,,,,,,,,,160,180,-190,,180,180,D
1,Kamo Egoyan,M,,,26,Armenia,Multi-ply,Open,75,75,,,,,,,,,,,215,-225,-225,,215,215,D
1,Tomáš Kríž,M,,,29,Slovakia,Multi-ply,Open,96.6,100,,,,,,,,,,,275,285,-295,,285,285,D
2,Grzegorz Drewniany,M,,,45,Poland,Multi-ply,Open,99.8,100,,,,,,,,,,,250,275,285,-300.5,285,285,D
3,Gor Hovhannisyan,M,,,33,Armenia,Multi-ply,Open,98.2,100,,,,,,,,,,,160,180,-190,,180,180,D
1,Péter Pintér,M,,,37,Slovakia,Multi-ply,Open,121.9,125,,,,,,,,,,,305,320,326,-331,326,326,D
2,Peter Hallberg,M,,,35,Sweden,Multi-ply,Open,118.5,125,,,,,,,,,,,300,322.5,-330,,322.5,322.5,D
1,Palma Andrea Di,M,,,34,Italy,Multi-ply,Open,143.1,140+,,,,,,,,,,,340,-350,350,-360,350,350,D
1,Dominik Šafránek,M,,,30,Slovakia,Unlimited,Open,81.1,82.5,,,,,,,,,,,270,290,-302.5,,290,290,D
2,Maciej Markowski,M,,,38,Poland,Unlimited,Open,82.2,82.5,,,,,,,,,,,-255,255,262.5,,262.5,262.5,D
1,Jakub Pączkowski,M,,,25,Poland,Unlimited,Open,89.1,90,,,,,,,,,,,275,292.5,300,,300,300,D
1,Arkadiusz Bereda,M,,,26,Poland,Unlimited,Open,98.9,100,,,,,,,,,,,300,-310,312.5,-321,312.5,312.5,D
1,Adrian Majczyna,M,,,25,Poland,Unlimited,Open,103.5,110,,,,,,,,,,,240,250,260,,260,260,D
DQ,Radosław Kozdrach,M,,,26,Poland,Unlimited,Open,110,110,,,,,,,,,,,-350,-350,,,,,D
1,Tomáš Tóth,M,,,32,Slovakia,Unlimited,Open,111.1,125,,,,,,,,,,,-320,-330,350,,350,350,D
2,Stanislav Močkor,M,,,26,Slovakia,Unlimited,Open,112.9,125,,,,,,,,,,,300,315,322.5,,322.5,322.5,D
3,Rafał Wójcik,M,,,35,Poland,Unlimited,Open,115.8,125,,,,,,,,,,,300,315,-330,,315,315,D
4,Marek Gortad,M,,,27,Poland,Unlimited,Open,122.6,125,,,,,,,,,,,-305,-305,305,,305,305,D
5,Robert Nemś,M,,,53,Poland,Unlimited,Open,119.3,125,,,,,,,,,,,290,,,,290,290,D
6,Marcin Bochra,M,,,36,Poland,Unlimited,Open,119.4,125,,,,,,,,,,,260,275,-290,,275,275,D
7,Piotr Szczesny,M,,,,Poland,Unlimited,Open,111.1,125,,,,,,,,,,,230,,,,230,230,D
1,Robert Wiejas,M,,,45,Poland,Unlimited,Open,135.3,140,,,,,,,,,,,300,-315,-315,,300,300,D
